organize_a_great_prayer = {
	sprite = "GFX_sky_domain_great_prayer"
	cost = 100
	
	trigger = {
		years_of_income = 0.5
		custom_trigger_tooltip = {
			tooltip = great_prayer_5_year_wait_trigger_tt
			NOT = {
				has_country_modifier = mengi_aspect_great_prayer_wait
			}
		}
		NOT = {
			stability = 3
		}
	}

	potential = {
	}

	effect = {
		country_event = {
			id = sky_domain.1
		}
	}

	# ai_will_do = {
	# 	factor = 1
	# 	modifier = {
	# 		factor = 10
	# 		stability = 0
	# 	}
	# 	modifier = {
	# 		factor = 20
	# 		stability = -1
	# 	}
	# 	modifier = {
	# 		factor = 40
	# 		stability = -2
	# 	}
	# 	modifier = {
	# 		factor = 60
	# 		stability = -3
	# 	}
	# }
}

repel_interlopers = {
	sprite = "GFX_sky_domain_repel_interlopers"
	cost = 50
	
	trigger = {
		any_neighbor_country = {
			NOT = { religion = sky_domain }
			NOT = { culture_group = mengi }
			NOT = { alliance_with = ROOT }
			any_owned_province = {
				OR = {
					region = telekenid_region
					region = yetefesefi_region
					region = denibari_region
				}
				NOT = { is_core = ROOT }
				culture_group = mengi
			}
		}
	}

	potential = {
		NOT = { tag = L65  }
	}

	effect = {
		country_event = {
			id = sky_domain.2
		}
	}
	
	# ai_will_do = {
	# 	factor = 5
	# 	modifier = {
	# 		factor = 10
	# 		OR = {
	# 			any_neighbor_country = {
	# 				is_enemy = ROOT
	# 			}
	# 			any_neighbor_country = {
	# 				has_opinion = {
	# 					who = ROOT
	# 					value = -25
	# 				}
	# 			}
	# 		}
	# 	}
	# }

}

construct_a_great_temple = {
	sprite = "GFX_sky_domain_great_temple"
	cost = 200
	
	trigger = {
		custom_trigger_tooltip = {
			tooltip = great_prayer_5_year_wait_trigger_tt
			NOT = {
				has_country_modifier = mengi_aspect_construct_a_great_temple_wait
			}
		}
		stability = 2
		if = {
			limit = {
				adm_tech = 19
			}
			num_of_owned_provinces_with = {
				num_free_building_slots = 1
				NOT = { has_building = cathedral }
				value = 5
			}
			treasury = 100
		}
		else = {
			num_of_owned_provinces_with = {
				num_free_building_slots = 1
				NOT = { has_building = cathedral }
				has_building = temple
				value = 1
			}
			treasury = 50
		}
	}

	potential = {
	}

	effect = {
		country_event = {
			id = sky_domain.3
		}
	}
	

}

cleanse_the_sins_of_the_riyitewag = {
	sprite = "GFX_sky_domain_riyitewag_sins"
	cost = 200
	
	trigger = {
		is_at_war = yes
		NOT = {
			has_country_modifier = riyitewag_sins_cleansed
		}
		custom_trigger_tooltip = {
			tooltip = riyitewag_sins_cleansed_20_year_wait_tt
			NOT = {
				has_country_modifier = mengi_aspect_cleanse_the_sins_of_the_riyitewag_wait
			}
		}
	}

	potential = {
	}

	effect = {
		country_event = {
			id = sky_domain.4
		}
	}
	

}

guide_the_rains = {
	sprite = "GFX_sky_domain_guide_rains"
	cost = 100
	
	trigger = {
		NOT = { is_at_war = yes }
		num_of_owned_provinces_with = {
			value = 1
			OR = {
				trade_goods = livestock
				trade_goods = grain
			}
		}
		custom_trigger_tooltip = {
			tooltip = guide_the_rains_wait_trigger_tt
			NOT = {
				has_country_modifier = mengi_aspect_guide_the_rains_wait
			}
		}
	}

	potential = {
	}

	effect = {
		country_event = {
			id = sky_domain.5
		}
	}
	

}

denounce_yrilaks_followers = {
	sprite = "GFX_sky_domain_denounce_yrilak"
	cost = 100
	
	trigger = {
		any_known_country = {
			is_enemy = ROOT
			custom_trigger_tooltip = {
				tooltip = denounce_yrilak_follower_trigger_tt
				OR = {
					ruler_has_bad_adm_personality = yes
					ruler_has_bad_dip_personality = yes
					ruler_has_bad_mil_personality = yes
				}
			}
		}
		diplomatic_reputation = 2
		NOT = { coalition_target = ROOT }
		estate_loyalty = {
			estate = estate_church
			loyalty = 60
		}
		NOT = {
			has_country_modifier = against_yrilakites
		}
	}

	potential = {
		NOT = { tag = L65  }
	}

	effect = {
		country_event = {
			id = sky_domain.6
		}
	}

}

expand_the_holy_realm = {
	sprite = "GFX_sky_domain_expand_realm"
	cost = 200
	
	potential = {
		ROOT = {
			tag = L65 
		}
	}

	trigger = {
		any_neighbor_country = {
			NOT = { religion = sky_domain }
			NOT = { alliance_with = ROOT }
			NOT = { truce_with = ROOT }
		}
		estate_loyalty = {
			estate = estate_church
			loyalty = 60
		}
		estate_influence = {
			estate = estate_church
			influence = 60
		}
		has_estate_privilege = estate_church_for_the_faith
		custom_trigger_tooltip = {
			tooltip = expand_the_holy_realm_wait_trigger_tt
			NOT = {
				has_country_modifier = mengi_expand_the_holy_realm_wait
			}
		}
	}

	effect = {
		country_event = {
			id = sky_domain.7
		}
	}

}

enforce_amilaks_supremacy = {
	sprite = "GFX_sky_domain_amilak_supremacy"
	cost = 100

	potential = {
		ROOT = {
			tag = L65 
		}
	}
	
	trigger = {
		any_owned_province = {
			NOT = { religion = sky_domain }
			NOT = { has_missionary = yes }
		}
		estate_loyalty = {
			estate = estate_church
			loyalty = 60
		}
	}

	effect = {
		country_event = {
			id = sky_domain.8
		}
	}

}

#naleni conversion aspects retained from the hunt
naleni_seek_powerful_egg_aspect = { 
	sprite = "GFX_birth_new_daughter"
	cost = 100
	
	trigger = {
		custom_trigger_tooltip = {
			tooltip = harpy_egg_cooldown_tt
			NOT = { has_country_flag = open_harpy_egg_menu }
			NOT = { has_country_flag = harpy_egg_ongoing }
		}	
	}

	potential = {
		tag = L55
		has_country_flag = L55_converted
	}
	
	effect = {
		tooltip = { country_event = { id = the_hunt_events.4 } }
		hidden_effect = {
			country_event = { id = the_hunt_events.5 }
			set_country_flag = open_harpy_egg_menu
		}
	}
	
	ai_will_do = {
		factor = 10
	}
}

naleni_fair_winds_aspect = {
	sprite = "GFX_invoke_the_winds"
	cost = 100
	
	potential = {
		tag = L55
		has_country_flag = L55_converted
	}

	effect = {
		country_event = { id = the_hunt_events.1 }
	}
	
	ai_will_do = {
		factor = 1000
		modifier = {
			factor = 0
			is_at_war = no
		}
	}
}

#averilibet 
#averilibet-children of beasts 
S53_children_of_beasts_aspect = {
	sprite = "GFX_sky_domain_riyitewag_sins"
	cost = 200

	potential = {
		OR = { 
			has_country_flag = S53_children_of_beasts_unlock
			overlord = {
				has_country_flag = S53_children_of_beasts_unlock_subjects_flag
				has_country_flag = S53_children_of_beasts_unlock
			}
		}
	}

	trigger = {
		NOT = { has_country_modifier = S53_children_of_beasts_roads_and_waterways }	
		years_of_manpower = 1
	}

	effect = {
		country_event = {
			id = flavor_averilibet.5
		}
	}
}

#averilibet-marriage of many 
S53_marriage_of_many_aspect = {
	sprite = "GFX_marry_local_suitor_icon"
	cost = 200

	potential = {
		OR = { 
			ROOT = {
				has_country_flag = S53_marriage_of_many_unlock_flag
			}
			overlord = {
				has_country_flag = S53_marriage_of_many_unlock_subjects_flag
				has_country_flag = S53_marriage_of_many_unlock_flag
			}
		}
	}

	trigger = {
		any_known_country = {
			government = monarchy
			NOT = { total_development = ROOT }
			trust = {
				who = ROOT
				value = 70
			}
			is_subject = no
			NOT = {total_development = 350}
		}
		custom_trigger_tooltip = {
			tooltip = S53_marriage_of_many_tooltip 
			OR = {
				any_known_country = {
					has_opinion_modifier = {
						who = ROOT 
						modifier = S53_ceremonial_marriage
					}
				}
				NOT = { has_country_modifier = S53_marriage_of_many_cooldown }
			}
		}
		
	}

	effect = {
		if = {
			limit = { ROOT = { is_subject = no } }
			country_event = {
				id = flavor_averilibet.7
			}
		}
		else = {
			country_event = {
				id = flavor_averilibet.10
			}
		}
	}
}

