country_decisions = {
	swamp_piping = {
		major = yes
		potential = {
			tag = J48
			has_country_flag = miremaw_swamp_piping_start
			NOT = { has_country_flag = miremaw_swamp_piped }
			amldihr_area = {
				type = all
				owned_by = ROOT
			}
			NOT = { has_country_flag = miremaw_piping_swamp }
		}
		
		provinces_to_highlight = {
			has_province_flag = flooded_province
			NOT = {
				OR = {
					has_province_modifier = miremaw_pipe_agriculture
					has_province_modifier = miremaw_pipe_homes
					has_province_modifier = miremaw_swamp_lakes
					has_province_modifier = miremaw_impenetrable_mire
				}
			}
			owned_by = ROOT
		}
		
		allow = {
			tag = J48
			amldihr_area = {
				type = all
				is_city = yes
			}
			if = {
				limit = { ai = no }
				treasury = 1500
			}
			else = {
				treasury = 500
			}
			adm_power = 200
		}
		
		effect = {
			hidden_effect = { set_country_flag = miremaw_piping_swamp }
			country_event = { id = flavor_miremaw.30 }
		}
		
		ai_will_do = {
			factor = 400
		}
	}
}